<?xml version="1.0" encoding="iso-8859-1"?>
<!-- Generator: Adobe Illustrator 19.0.0, SVG Export Plug-In . SVG Version: 6.00 Build 0)  -->
<svg version="1.1" id="Capa_1" xmlns="http://www.w3.org/2000/svg" xmlns:xlink="http://www.w3.org/1999/xlink" x="0px" y="0px"
	viewBox="0 0 480 480" style="enable-background:new 0 0 480 480;" xml:space="preserve">

	<g>
		<g>
			<path fill="#000" d="M392,136h-25.52C364.616,89.6,346.4,14.768,288,8.472V8c0-4.418-3.582-8-8-8h-48c-4.418,0-8,3.582-8,8v0.472
				C165.6,14.768,147.384,89.6,145.52,136H120c-4.418,0-8,3.582-8,8v32c0,4.418,3.582,8,8,8h272c4.418,0,8-3.582,8-8v-32
				C400,139.582,396.418,136,392,136z M384,168H128v-16h64v-16h-30.464C163.2,95.456,177.888,31.304,224,24.616V96h16V16h32v80h16
				V24.616c46.112,6.688,60.8,70.84,62.464,111.384H208v16h176V168z"/>
			</g>
		</g>
	</svg>
